(footprint "Texas_VQFN-RNR0011A-11" (version 20221018) (generator pcbnew)
  (layer "F.Cu")
  (descr "RNR0011A, VQFN-11 (https://www.ti.com/lit/ds/symlink/tps61089.pdf#Page=27)")
  (tags "TI RNR0011A")
  (attr smd)
  (fp_text reference "REF**" (at 0 -2.2) (layer "F.SilkS")
      (effects (font (size 1 1) (thickness 0.15)))
    (tstamp 8f6f21b3-13fd-44d1-bdfa-e6b2ee6ea36c)
  )
  (fp_text value "Texas_VQFN-RNR0011A-11" (at 0 2.3) (layer "F.Fab")
      (effects (font (size 1 1) (thickness 0.15)))
    (tstamp 1d414dcc-e683-4261-a9c6-35ed8cddf3e9)
  )
  (fp_text user "${REFERENCE}" (at 0 0) (layer "F.Fab")
      (effects (font (size 0.6 0.6) (thickness 0.1)))
    (tstamp 4878abb8-d67e-4b5d-b19f-feefb2e1b87d)
  )
  (fp_line (start -1.41 1.13) (end -1.41 1.16)
    (stroke (width 0.12) (type solid)) (layer "F.SilkS") (tstamp a06933d9-866d-4127-9d65-d76c3746ff32))
  (fp_line (start -1.41 1.16) (end -0.835 1.16)
    (stroke (width 0.12) (type solid)) (layer "F.SilkS") (tstamp b8ff22b1-53ec-4b1f-bcad-712f047a7b5a))
  (fp_line (start -1 -1.16) (end -0.81 -1.16)
    (stroke (width 0.12) (type solid)) (layer "F.SilkS") (tstamp 2e2a59a7-ef16-4e2a-acf5-5d523015d35f))
  (fp_line (start 0.81 -1.16) (end 1.41 -1.16)
    (stroke (width 0.12) (type solid)) (layer "F.SilkS") (tstamp 1ce7066b-3d2d-4203-b31b-53d0be81f1ba))
  (fp_line (start 0.835 1.16) (end 1.41 1.16)
    (stroke (width 0.12) (type solid)) (layer "F.SilkS") (tstamp 6d8967a4-542c-471f-86cd-d56ea2fd9bcb))
  (fp_line (start 1.41 -1.13) (end 1.41 -1.16)
    (stroke (width 0.12) (type solid)) (layer "F.SilkS") (tstamp 936c8171-bf9a-4093-9e65-12e52d111662))
  (fp_line (start 1.41 1.13) (end 1.41 1.16)
    (stroke (width 0.12) (type solid)) (layer "F.SilkS") (tstamp 7a16d304-0ee7-41ff-98d6-28ee584b9921))
  (fp_arc (start -0.2 -0.77) (mid -0.270711 -0.799289) (end -0.3 -0.87)
    (stroke (width 0.1) (type default)) (layer "F.Mask") (tstamp cf6599ce-4c2a-447e-9ff4-ec834ecbdac9))
  (fp_arc (start 0.3 -0.87) (mid 0.270711 -0.799289) (end 0.2 -0.77)
    (stroke (width 0.1) (type default)) (layer "F.Mask") (tstamp af098c08-7606-48ed-8d94-14fdea37b2e3))
  (fp_line (start -1.7 -1.45) (end -1.7 1.45)
    (stroke (width 0.05) (type solid)) (layer "F.CrtYd") (tstamp a395415e-627c-442f-9489-4615a6468d75))
  (fp_line (start -1.7 -1.45) (end 1.7 -1.45)
    (stroke (width 0.05) (type solid)) (layer "F.CrtYd") (tstamp 486e5135-a57d-4391-9302-65f88fdc1d47))
  (fp_line (start -1.7 1.45) (end 1.7 1.45)
    (stroke (width 0.05) (type solid)) (layer "F.CrtYd") (tstamp 9763aba2-0f09-44b6-a269-d3bce8027ad5))
  (fp_line (start 1.7 -1.45) (end 1.7 1.45)
    (stroke (width 0.05) (type solid)) (layer "F.CrtYd") (tstamp aa4438ad-89e1-4617-a893-1022a0604564))
  (fp_line (start -1.3 -0.6) (end -1.3 1.05)
    (stroke (width 0.1) (type solid)) (layer "F.Fab") (tstamp 7bec7840-e353-4e7c-86a9-4cb30dd8d826))
  (fp_line (start -1.3 1.05) (end 1.3 1.05)
    (stroke (width 0.1) (type solid)) (layer "F.Fab") (tstamp 45742ff8-f02a-448e-b8c6-96617672ac25))
  (fp_line (start -0.85 -1.05) (end -1.3 -0.6)
    (stroke (width 0.1) (type default)) (layer "F.Fab") (tstamp 2e1d2722-d269-4321-a3ed-c90be3d45786))
  (fp_line (start -0.85 -1.05) (end 1.3 -1.05)
    (stroke (width 0.1) (type solid)) (layer "F.Fab") (tstamp e83b9fb5-a1e6-412a-9425-36c148429174))
  (fp_line (start 1.3 -1.05) (end 1.3 1.05)
    (stroke (width 0.1) (type solid)) (layer "F.Fab") (tstamp a0df6cb3-e397-4cf9-8d6f-d4605bee4326))
  (pad "" smd roundrect (at -0.375 -1.06) (size 0.25 0.28) (layers "F.Paste") (roundrect_rratio 0.1)
    (solder_paste_margin 0.05) (tstamp cc67c3a4-fbfa-4845-af64-973c01231fb0))
  (pad "" smd roundrect (at -0.375 -0.7) (size 0.25 1) (layers "F.Mask") (roundrect_rratio 0.15) (tstamp c14c3de7-4e47-438b-ac8a-c16d821b27c3))
  (pad "" smd roundrect (at -0.35 0.74) (size 0.35 0.92) (layers "F.Paste") (roundrect_rratio 0.1)
    (solder_paste_margin 0.05) (tstamp 918ed0a2-4dc1-4d15-a90d-0a6471a66960))
  (pad "" smd roundrect (at 0 -0.51) (size 1 0.62) (layers "F.Mask") (roundrect_rratio 0.1) (tstamp a48c1cc7-6785-4d57-921a-645d9be1f0dc))
  (pad "" smd roundrect (at 0 -0.46) (size 1 0.52) (layers "F.Paste") (roundrect_rratio 0.1)
    (solder_paste_margin 0.05) (tstamp 3b8b3c0a-07f3-4576-a821-3f5e0ba6bf28))
  (pad "" smd roundrect (at 0.35 0.74) (size 0.35 0.92) (layers "F.Paste") (roundrect_rratio 0.1)
    (solder_paste_margin 0.05) (tstamp fec85c24-db85-4861-bab9-0f19f6cff73e))
  (pad "" smd roundrect (at 0.375 -1.06) (size 0.25 0.28) (layers "F.Paste") (roundrect_rratio 0.1)
    (solder_paste_margin 0.05) (tstamp a31fbdbd-3e20-4d1c-b210-465deb4836ec))
  (pad "" smd roundrect (at 0.375 -0.7) (size 0.25 1) (layers "F.Mask") (roundrect_rratio 0.15) (tstamp bcb39ff4-5b7a-4d1f-a582-ca9e8c9e5a63))
  (pad "1" smd roundrect (at -1.175 -0.75) (size 0.55 0.25) (layers "F.Cu" "F.Paste" "F.Mask") (roundrect_rratio 0.25) (tstamp f13291f9-8228-4179-9c5c-93f7268ec123))
  (pad "2" smd roundrect (at -1.175 -0.25) (size 0.55 0.25) (layers "F.Cu" "F.Paste" "F.Mask") (roundrect_rratio 0.25) (tstamp 8fb951f7-1046-489e-99ef-f9b3bf90fc90))
  (pad "3" smd roundrect (at -1.175 0.25) (size 0.55 0.25) (layers "F.Cu" "F.Paste" "F.Mask") (roundrect_rratio 0.25) (tstamp 01f13a4f-cbb2-4d22-83e5-e3ee5708d4a8))
  (pad "4" smd roundrect (at -1.175 0.75) (size 0.55 0.25) (layers "F.Cu" "F.Paste" "F.Mask") (roundrect_rratio 0.25) (tstamp 7d06ec11-7070-40e6-af85-683521a21f8e))
  (pad "5" smd roundrect (at -0.35 0.7) (size 0.45 1.1) (layers "F.Cu" "F.Mask") (roundrect_rratio 0.12)
    (solder_mask_margin -0.05) (tstamp 778c499c-4ccf-471d-8713-82391c8f2075))
  (pad "6" smd roundrect (at 0.35 0.7) (size 0.45 1.1) (layers "F.Cu" "F.Mask") (roundrect_rratio 0.12)
    (solder_mask_margin -0.05) (tstamp 9166772a-8de8-4b60-8507-a0cddaaf5527))
  (pad "7" smd roundrect (at 1.175 0.75 180) (size 0.55 0.25) (layers "F.Cu" "F.Paste" "F.Mask") (roundrect_rratio 0.25) (tstamp 4d822f89-428c-4a1c-b3ae-b8cc80006013))
  (pad "8" smd roundrect (at 1.175 0.25 180) (size 0.55 0.25) (layers "F.Cu" "F.Paste" "F.Mask") (roundrect_rratio 0.25) (tstamp 4e6188f0-4b33-404a-bc6e-51455bc38f50))
  (pad "9" smd roundrect (at 1.175 -0.25 180) (size 0.55 0.25) (layers "F.Cu" "F.Paste" "F.Mask") (roundrect_rratio 0.25) (tstamp cdde8b06-6962-417b-89b2-9e395131503c))
  (pad "10" smd roundrect (at 1.175 -0.75 180) (size 0.55 0.25) (layers "F.Cu" "F.Paste" "F.Mask") (roundrect_rratio 0.25) (tstamp 0d33be70-bf76-41ce-81bd-8e756abc6f6a))
  (pad "11" thru_hole circle (at 0 -1) (size 0.5 0.5) (drill 0.2) (layers "*.Cu") (tstamp 563b723c-9e92-4832-9563-7f68bc699a92))
  (pad "11" smd roundrect (at 0 -0.7) (size 1.1 1.1) (layers "F.Cu") (roundrect_rratio 0.05) (tstamp 5c47da2b-caef-463d-85e9-9acc3bb0aaf6))
  (model "${KICAD7_3DMODEL_DIR}/Package_DFN_QFN.3dshapes/Texas_VQFN-RNR0011A-11.wrl"
    (offset (xyz 0 0 0))
    (scale (xyz 1 1 1))
    (rotate (xyz 0 0 0))
  )
)
